<svg width="110" height="110" viewBox="0 0 110 110" fill="none" xmlns="http://www.w3.org/2000/svg">
<path fill-rule="evenodd" clip-rule="evenodd" d="M41.6901 108.353C71.1612 115.701 101.007 97.7694 108.354 68.3052C115.7 38.8392 97.7685 8.99171 68.2992 1.64585C38.8366 -5.70001 8.99081 12.2332 1.64753 41.7009C-5.70263 71.1634 12.231 101.007 41.6901 108.353ZM66.9685 33.7079C74.5605 36.3422 80.1128 40.2909 79.0219 47.6364C78.2323 53.0136 75.2729 55.6168 71.3442 56.5294C76.7389 59.3586 79.4843 63.6972 76.8691 71.2187C73.6237 80.5601 65.9135 81.3485 55.6601 79.394L53.1717 89.4393L47.1587 87.9298L49.6146 78.019C48.0561 77.6292 46.4634 77.2151 44.8227 76.7666L42.3583 86.7239L36.3521 85.2145L38.8406 75.1502C38.2793 75.0054 37.7145 74.857 37.1457 74.7076L37.1452 74.7075C36.2909 74.4831 35.4277 74.2563 34.5539 74.0358L26.729 72.0709L29.7141 65.1377C29.7141 65.1377 34.1446 66.3245 34.0846 66.2366C35.787 66.6609 36.5422 65.5431 36.8402 64.7978L40.7724 48.9182C40.92 48.9539 41.0646 48.9904 41.204 49.0257C41.2733 49.0431 41.3413 49.0603 41.4078 49.0769C41.168 48.9803 40.9505 48.9182 40.7827 48.8751L43.5879 37.5394C43.6616 36.2525 43.2214 34.6291 40.7861 34.0167C40.8803 33.9529 36.4189 32.923 36.4189 32.923L38.0185 26.4538L46.311 28.5395L46.3041 28.5706C47.5509 28.8828 48.8354 29.1795 50.1438 29.4797L52.6082 19.5327L58.6178 21.0422L56.203 30.7942C57.8163 31.1651 59.4398 31.5395 61.0206 31.9362L63.4183 22.248L69.4312 23.7575L66.9685 33.7079ZM47.9491 69.7846C52.8555 71.0899 63.5785 73.9428 65.2833 67.0422C67.0302 59.9865 56.6306 57.636 51.556 56.489L51.5559 56.489C50.9889 56.3608 50.4884 56.2477 50.0787 56.1447L46.7768 69.478C47.1133 69.5622 47.5076 69.6671 47.9491 69.7846L47.9491 69.7846ZM67.1432 47.5278C65.5889 53.7996 56.6662 51.401 52.5756 50.3014L52.5753 50.3013C52.2037 50.2014 51.8719 50.1122 51.5892 50.0412L54.5829 37.9482C54.9261 38.0344 55.3464 38.1281 55.8228 38.2344C60.0581 39.1788 68.7303 41.1126 67.1432 47.5278Z" fill="#15242E"/>
</svg>
