<svg width="184" height="256" viewBox="0 0 184 256" fill="none" xmlns="http://www.w3.org/2000/svg">
<path d="M185.955 121.922H165.924C180.729 113.297 180.839 108.188 180.845 102.9C180.851 97.1026 180.719 85.2484 130.704 67.3799C119.604 63.0051 110.495 63.0051 110.495 63.0051C100.28 62.7917 88.976 69.3203 83.6555 79.1568C81.1818 82.9132 80.2773 88.0972 72.7664 90.2229C62.4898 93.1335 44.1762 80.6875 32.1384 72.6906C28.4153 70.2233 24.9294 67.91 21.765 65.9985C14.9915 61.9028 6.16714 64.0707 2.07883 70.8636C-2.03368 77.6534 0.14743 86.4907 6.928 90.595C9.77476 92.3212 12.9126 94.4164 16.276 96.6437C30.9912 106.423 50.3684 119.296 69.8353 119.296C71.8869 119.296 73.9353 119.091 75.9814 118.783L69.1447 163.252C18.8223 164.961 14.588 169.533 9.86372 174.708C6.18275 178.737 4.10699 184.676 4.5596 190.122C4.63061 191.018 12.1486 280.857 13.0086 284.697C15.0555 293.807 23.1252 300 32.0744 300C33.4892 300 34.9383 299.844 36.3867 299.522C46.4104 297.258 52.8937 287.649 51.4578 277.617C50.9271 272.792 46.5321 231.523 44.3768 206.373C44.3768 206.373 108.458 201.501 114.37 199.028C126.609 195.723 133.672 189.755 135.446 178.227L141.667 137.726C137.943 139.264 134.009 140.797 129.645 142.524C115.504 148.117 107.447 139.465 104.778 132.518C101.201 123.204 104.58 113.403 116.673 108.725L136.707 100.751C138.048 101.345 139.407 101.932 140.645 102.504C133.418 105.836 124.692 109.524 116.894 112.533C109.501 115.383 105.814 123.704 108.661 131.115C110.86 136.817 116.289 140.319 122.052 140.319C123.766 140.319 125.508 140.009 127.204 139.356C139.87 134.465 149.466 130.328 156.857 126.721L143.96 180.002C143.96 180.002 139.626 202.888 114.844 206.483C94.2169 209.476 52.8 212.532 52.8 212.532L61.0906 288.996H186L185.955 121.922Z" fill="#02121D"/>
<ellipse cx="116" cy="24.5" rx="37" ry="36.5" fill="#02121D"/>
</svg>
