<?xml version="1.0" encoding="UTF-8"?>
<svg width="322px" height="436px" viewBox="0 0 322 436" version="1.1" xmlns="http://www.w3.org/2000/svg" xmlns:xlink="http://www.w3.org/1999/xlink">
    <title>Outline</title>
    <defs>
        <rect id="path-1" x="0" y="0" width="290" height="404" rx="24"></rect>
        <rect id="path-3" x="0" y="0" width="290" height="404" rx="24"></rect>
        <filter x="-5.3%" y="-3.8%" width="110.7%" height="107.7%" filterUnits="objectBoundingBox" id="filter-4">
            <feGaussianBlur stdDeviation="5" in="SourceGraphic"></feGaussianBlur>
        </filter>
    </defs>
    <g id="Active---THORChain.org" stroke="none" stroke-width="1" fill="none" fill-rule="evenodd">
        <g id="Technology---FINAL" transform="translate(-685.000000, -4517.000000)">
            <g id="Content" transform="translate(-44.000000, 147.000000)">
                <g id="Rewriting-Legacy" transform="translate(44.000000, 4184.000000)">
                    <g id="Outline" transform="translate(701.000000, 202.000000)">
                        <mask id="mask-2" fill="white">
                            <use xlink:href="#path-1"></use>
                        </mask>
                        <use id="Background-Copy-3" stroke="#23DCC8" stroke-width="2" fill="#02121D" xlink:href="#path-1"></use>
                        <mask id="mask-5" fill="white">
                            <use xlink:href="#path-3"></use>
                        </mask>
                        <use id="Background" stroke="#23DCC8" filter="url(#filter-4)" xlink:href="#path-3"></use>
                    </g>
                </g>
            </g>
        </g>
    </g>
</svg>