<svg width="378" height="429" viewBox="0 0 378 429" fill="none" xmlns="http://www.w3.org/2000/svg">
<path d="M208.436 322.417C209.152 319.405 209.644 316.218 209.791 312.806C212.628 250.861 178.704 200.139 127.853 167.531C97.6073 148.127 68.9206 169.282 61.6331 196.258C42.8878 181.372 10.424 203.648 25.0271 228.116C25.5607 229.006 26.1083 229.903 26.6559 230.799C11.9966 230.743 -9.52038 232.383 4.60977 239.429C5.98308 240.114 7.33796 241.185 8.665 242.56C14.4739 248.58 30.9175 245.932 30.9175 237.566C42.3121 254.952 56.8801 271.218 78.56 273.677C88.4452 274.804 96.6103 271.75 103.322 266.405C111.796 276.752 116.114 288.366 116.956 302.306C109.535 302.194 102.093 302.495 94.5813 303.371C68.6679 306.418 52.6747 312.113 47.4372 339.159C39.56 379.956 60.8257 409.755 83.7624 440.941C102.423 466.306 145.376 441.725 126.469 416.003C111.01 394.988 95.4589 377.721 96.0978 353.302C111.206 351.011 126.231 351.628 141.571 353.092C149.076 356.314 157.543 357.617 165.926 356.965C178.43 398.68 202.174 435.834 232.925 467.525C255.152 490.438 290.094 455.462 267.902 432.647C237.411 401.181 216.988 364.776 208.436 322.417Z" fill="#02121D"/>
<circle cx="56" cy="121" r="44" fill="#02121D"/>
<circle cx="176" cy="-9" r="44" fill="#02121D"/>
<circle cx="164.5" cy="17.5" r="7.5" fill="#F3BA2F"/>
<circle cx="151" cy="9" r="4" fill="#F3BA2F"/>
<path fill-rule="evenodd" clip-rule="evenodd" d="M221.017 294.563C232.808 215.724 133 162.233 133 162.233C445.965 69.0896 370.155 274.339 369.4 276.382C369.397 276.392 369.395 276.397 369.395 276.397C308.028 427.997 195.171 360.295 221.017 294.563ZM301.982 298.615V285.941C313.081 283.112 320.371 274.434 320.392 263.695C320.392 249.519 309.719 243.357 300.452 239.584C289.737 235.14 287.934 232.793 287.934 229.167C287.934 225.82 290.359 222.243 297.174 222.243C304.078 222.243 308.43 224.731 310.279 225.788L310.286 225.792L313.431 227.581L318.533 214.11L316.29 212.783C312.271 210.428 307.804 209.01 302.695 208.493V197.013H289.324V209.331C278.596 212.035 271.753 220.147 271.753 230.55C271.753 243.49 282.44 249.435 292.868 253.516C302.744 257.512 304.079 261.152 304.079 264.506C304.079 269.473 299.774 272.82 293.322 272.82C288.052 272.82 282.552 271.178 278.295 268.335L275.01 266.148L270.118 279.828L272.012 281.19C276.031 284.041 282.244 286.102 288.493 286.689V298.615H301.982Z" fill="#02121D"/>
</svg>
