<svg width="1138" height="497" viewBox="0 0 1138 497" fill="none" xmlns="http://www.w3.org/2000/svg">
<path d="M473.049 89.5C484.627 89.5 494.021 80.1297 494.049 68.552L494.135 33.9529C494.161 23.4779 502.66 15 513.135 15H1104C1114.49 15 1123 23.5066 1123 34V463C1123 473.493 1114.49 482 1104 482H513.135C502.66 482 494.161 473.522 494.135 463.048L494.05 429.206C494.021 417.628 484.627 408.258 473.05 408.258H34C23.5066 408.258 15 399.752 15 389.258V108.5C15 98.0066 23.5066 89.5 34 89.5H473.049Z" stroke="white" stroke-width="2"/>
<g opacity="0.564154" filter="url(#filter0_f)">
<path d="M473.049 89.5C484.627 89.5 494.021 80.1297 494.049 68.552L494.135 33.9529C494.161 23.4779 502.66 15 513.135 15H1104C1114.49 15 1123 23.5066 1123 34V463C1123 473.493 1114.49 482 1104 482H513.135C502.66 482 494.161 473.522 494.135 463.048L494.05 429.206C494.021 417.628 484.627 408.258 473.05 408.258H34C23.5066 408.258 15 399.752 15 389.258V108.5C15 98.0066 23.5066 89.5 34 89.5H473.049Z" stroke="white" stroke-width="2"/>
</g>
<defs>
<filter id="filter0_f" x="0.408591" y="0.408591" width="1137.18" height="496.183" filterUnits="userSpaceOnUse" color-interpolation-filters="sRGB">
<feFlood flood-opacity="0" result="BackgroundImageFix"/>
<feBlend mode="normal" in="SourceGraphic" in2="BackgroundImageFix" result="shape"/>
<feGaussianBlur stdDeviation="6.7957" result="effect1_foregroundBlur"/>
</filter>
</defs>
</svg>
