<svg width="392" height="256" viewBox="0 0 392 256" fill="none" xmlns="http://www.w3.org/2000/svg">
<path d="M-18.4086 175.149L-6.22491 317.38H39.3775V311.527V263.777H33.6059V311.157C23.7872 309.836 13.1943 304.814 8.50665 294.42C8.33069 293.4 6.8526 288.692 6.2684 287.254C-9.99756 246.677 -4.55679 204.808 13.9052 166.055C28.1933 136.033 78.7086 155.598 79.4828 183.867C88.3936 186.836 97.5155 188.065 106.841 187.227C112.571 186.752 117.836 189.434 120.94 193.828C124.571 197.864 124.55 206 121.925 210.019C119.511 214.441 114.999 217.626 109.544 218.094C106.694 218.324 103.829 218.464 100.992 218.464C90.5825 218.464 80.3345 216.802 70.3821 213.554C65.8704 231.296 67.1373 249.073 73.5071 267.101C91.5468 267.199 108.446 270.091 124.55 275.903C132.229 278.669 137.564 285.647 138.17 293.722C141.217 332.755 126.584 361.456 111.874 384.395C107.904 390.633 101.183 394 94.2848 394C90.4699 394 86.5917 392.938 83.1428 390.773C73.4508 384.626 70.6003 371.878 76.7589 362.26C89.3015 342.659 95.4602 327.187 96.7271 310.828C88.7384 309.103 82.1575 308.3 73.3875 308.376V280.967H67.1443V317.38H89.1115V336.883H-4.54272H-23.8986H-31.1342L-45 175.149H-18.4086Z" fill="#02121D"/>
<path d="M105.027 125.885C110.269 115.1 121.15 112.237 129.35 115.222C130.123 115.503 130.862 115.836 131.595 116.206C136.481 118.682 140.16 123.202 142.114 129.166C148.211 125.387 154.768 124.481 160.716 126.646C160.761 126.662 160.798 126.684 160.843 126.7L160.885 126.707C169.092 129.695 175.587 138.881 172.667 150.52C172.611 150.492 172.553 150.47 172.523 150.452C172.299 151.37 172.022 152.292 171.675 153.245C166.835 166.604 152.224 171.838 141.563 175.653C139.636 176.34 137.978 176.935 136.486 177.439C136.49 177.448 136.498 177.467 136.498 177.467L136.372 177.508C129.8 179.726 127.351 180.556 124.462 181.988C123.975 182.215 123.456 182.248 122.969 182.071C122.936 182.059 122.909 182.033 122.87 182.019C122.857 182.014 122.831 182.005 122.831 182.005C122.344 181.827 121.954 181.464 121.749 180.976C120.826 178.847 119.846 177.094 118.032 174.078C117.948 173.944 117.878 173.815 117.79 173.672C117.403 173.04 116.981 172.339 116.548 171.61C116.222 171.071 115.875 170.508 115.494 169.878L115.407 169.775C115.409 169.768 115.422 169.772 115.422 169.772C114.621 168.418 113.725 166.901 112.685 165.15C106.98 155.37 99.1575 141.972 104.012 128.634C104.362 127.674 104.754 126.777 105.175 125.923C105.127 125.914 105.073 125.902 105.027 125.885Z" fill="#02121D"/>
<path d="M194.931 163.663C200.839 162.19 205.522 165.541 207.056 169.755C207.201 170.152 207.314 170.553 207.411 170.963C208.054 173.703 207.507 176.638 205.834 179.367C209.303 180.531 211.807 182.82 212.92 185.876C212.928 185.899 212.932 185.921 212.94 185.944L212.951 185.963C214.486 190.18 213.053 195.758 207.576 198.428C207.569 198.397 207.558 198.367 207.555 198.349C207.125 198.562 206.676 198.755 206.192 198.932C199.417 201.409 192.588 197.365 187.607 194.413C186.708 193.878 185.933 193.42 185.247 192.997C185.245 193.002 185.24 193.011 185.24 193.011L185.183 192.975C182.164 191.111 181.038 190.418 179.533 189.748C179.285 189.631 179.102 189.437 179.011 189.187C179.005 189.17 179.006 189.151 178.999 189.131C178.996 189.124 178.991 189.111 178.991 189.111C178.9 188.86 178.913 188.587 179.035 188.346C179.559 187.283 179.917 186.321 180.493 184.615C180.517 184.539 180.544 184.468 180.571 184.387C180.689 184.026 180.823 183.63 180.963 183.22C181.066 182.914 181.17 182.593 181.29 182.236L181.301 182.167C181.305 182.166 181.307 182.173 181.307 182.173C181.57 181.412 181.864 180.56 182.203 179.576C184.126 174.114 186.759 166.63 193.531 164.166C194.018 163.988 194.495 163.849 194.965 163.734C194.953 163.712 194.939 163.687 194.931 163.663Z" fill="#02121D"/>
<path d="M80.6772 95.9726C79.8237 92.5729 81.7166 89.8895 84.1085 89.019C84.3339 88.9369 84.5614 88.8727 84.7946 88.818C86.3506 88.4557 88.0206 88.7778 89.5764 89.7467C90.2288 87.7561 91.5235 86.3224 93.2583 85.691C93.2715 85.6862 93.2836 85.6841 93.2969 85.6793L93.3075 85.6731C95.7013 84.8019 98.8762 85.6406 100.408 88.7957C100.391 88.7998 100.374 88.806 100.363 88.8074C100.486 89.0551 100.597 89.3137 100.698 89.5922C102.125 93.4931 99.8434 97.4077 98.1782 100.263C97.8769 100.779 97.6182 101.223 97.3795 101.616L97.3672 101.653C96.3155 103.383 95.9242 104.029 95.5477 104.892C95.4815 105.034 95.3717 105.139 95.2297 105.191C95.2202 105.194 95.2093 105.193 95.1979 105.198C95.1941 105.199 95.1865 105.202 95.1865 105.202C95.0445 105.253 94.8892 105.245 94.7519 105.174C94.146 104.871 93.5982 104.662 92.6269 104.327C92.5831 104.313 92.5431 104.297 92.4967 104.281C92.2914 104.212 92.0658 104.134 91.8322 104.052C91.6582 103.993 91.4752 103.932 91.2718 103.862L91.2329 103.856C90.8028 103.699 90.3179 103.528 89.7572 103.331C86.6473 102.211 82.3854 100.678 80.9663 96.7788C80.8642 96.4982 80.7836 96.2238 80.7174 95.9534C80.7048 95.9602 80.6904 95.9678 80.6772 95.9726Z" fill="#02121D"/>
<path d="M155.701 210.596C159.747 208.796 163.53 210.614 165.167 213.449C165.321 213.716 165.453 213.989 165.575 214.272C166.385 216.159 166.367 218.336 165.516 220.506C168.15 220.906 170.236 222.235 171.423 224.291C171.432 224.307 171.438 224.321 171.447 224.337L171.457 224.349C173.094 227.186 172.778 231.372 169.193 233.977C169.184 233.955 169.172 233.935 169.168 233.923C168.887 234.13 168.59 234.325 168.266 234.512C163.726 237.142 158.317 235.095 154.371 233.6C153.658 233.33 153.044 233.098 152.499 232.88C152.498 232.884 152.496 232.891 152.496 232.891L152.45 232.872C150.049 231.913 149.154 231.556 147.991 231.264C147.798 231.211 147.642 231.095 147.544 230.926C147.538 230.915 147.536 230.901 147.528 230.888C147.526 230.883 147.521 230.874 147.521 230.874C147.424 230.706 147.398 230.508 147.455 230.32C147.694 229.49 147.829 228.754 148.024 227.457C148.031 227.399 148.042 227.345 148.05 227.283C148.089 227.009 148.135 226.708 148.183 226.396C148.218 226.163 148.252 225.919 148.292 225.648L148.291 225.597C148.294 225.596 148.296 225.6 148.296 225.6C148.388 225.021 148.49 224.372 148.607 223.623C149.289 219.459 150.222 213.753 154.761 211.132C155.088 210.944 155.412 210.784 155.734 210.643C155.722 210.628 155.71 210.612 155.701 210.596Z" fill="#02121D"/>
<circle r="38" transform="matrix(-1 0 0 1 33 105)" fill="#02121D"/>
<circle r="7" transform="matrix(-1 0 0 1 355 121)" fill="#02121D"/>
<circle r="6" transform="matrix(-1 0 0 1 236 54)" fill="#02121D"/>
<circle r="6" transform="matrix(-1 0 0 1 386 14)" fill="#02121D"/>
<circle r="9.5" transform="matrix(-1 0 0 1 98.5 0.5)" fill="#02121D"/>
<path d="M380.835 60.613L383.002 56L385.165 60.613L390 61.3494L386.497 64.9335L387.327 70L383.002 67.6106L378.673 70L379.494 64.9335L376 61.3494L380.835 60.613Z" fill="#02121D"/>
<path d="M273.5 18.39L270.014 16.542L266.486 18.39L267.172 14.498L264.33 11.726L268.25 11.152L270.014 7.61L271.764 11.152L275.67 11.726L272.842 14.498L273.5 18.39Z" fill="#02121D"/>
<path d="M191.241 18.2107L187 14.1137L192.866 13.2675L195.496 8L198.119 13.2675L204 14.1137L199.745 18.2107L200.75 24L195.496 21.264L190.236 24L191.241 18.2107Z" fill="#02121D"/>
<path d="M148.567 36L142.996 33.2617L137.426 36L138.509 30.2125L134 26.105L140.222 25.265L142.996 20L145.778 25.265L152 26.105L147.505 30.2125L148.567 36Z" fill="#02121D"/>
<path d="M47.567 19L41.9965 16.2617L36.4259 19L37.5088 13.2125L33 9.105L39.2218 8.26499L41.9965 3L44.7782 8.26499L51 9.105L46.5053 13.2125L47.567 19Z" fill="#02121D"/>
<path d="M336.219 36.5965L338.997 31L341.781 36.5965L348 37.4934L343.496 41.8523L344.56 48L338.997 45.099L333.435 48L334.499 41.8523L330 37.4934L336.219 36.5965Z" fill="#02121D"/>
</svg>
