<svg width="15" height="14" viewBox="0 0 15 14" fill="none" xmlns="http://www.w3.org/2000/svg">
<path id="Shape Copy 3" fill-rule="evenodd" clip-rule="evenodd" d="M11.7423 0.000161816C11.5997 -0.00111185 11.4723 0.0893242 11.4277 0.225615L9.80625 5.21743H5.19274L3.57127 0.225615C3.52796 0.0944192 3.40695 0.00398314 3.26811 0.000161816C3.12928 -0.00238551 3.00445 0.0816816 2.95477 0.211604L1.00085 5.42632C1.00006 5.42632 0.999758 5.42681 0.999343 5.42748L0.998299 5.42887L0.0200622 8.0375C-0.0308877 8.17506 0.0149672 8.32919 0.134699 8.4158L7.30589 13.6305L7.30716 13.6331C7.31036 13.6355 7.31356 13.6374 7.31645 13.6391L7.32117 13.642C7.32372 13.6433 7.32595 13.6448 7.32818 13.6464C7.33041 13.648 7.33264 13.6496 7.33519 13.6509L7.33542 13.6509C7.33591 13.651 7.33618 13.6513 7.33646 13.6515L7.33695 13.652L7.33773 13.6522C7.33773 13.6522 7.33901 13.6534 7.34028 13.6534C7.34155 13.6547 7.34283 13.656 7.34538 13.656L7.34714 13.6574L7.34792 13.6579C7.34888 13.6585 7.34983 13.6592 7.35047 13.6598C7.35684 13.6624 7.36448 13.6662 7.37212 13.6687C7.37767 13.6715 7.38321 13.6736 7.38826 13.6755L7.39378 13.6776L7.40111 13.68L7.40112 13.68C7.4052 13.6813 7.40878 13.6824 7.41288 13.684L7.41413 13.6841L7.41644 13.6846C7.41798 13.6849 7.4197 13.6853 7.4218 13.6853C7.42817 13.6878 7.43454 13.6891 7.44091 13.6904L7.46638 13.6942L7.47409 13.6943L7.48612 13.6948C7.49281 13.6952 7.4995 13.6955 7.50587 13.6955L7.51764 13.6945H7.51766C7.52589 13.6939 7.53371 13.6934 7.54153 13.6917C7.54663 13.6917 7.55045 13.6917 7.55554 13.6904H7.55809C7.56064 13.6891 7.56191 13.6891 7.56446 13.6891C7.56499 13.6891 7.56551 13.6889 7.56613 13.6886C7.56701 13.6883 7.56806 13.6878 7.56955 13.6878C7.5721 13.6866 7.57592 13.6866 7.57847 13.6853C7.58357 13.684 7.58739 13.6827 7.59121 13.6815C7.59376 13.6815 7.59503 13.6815 7.5963 13.6802H7.60012C7.60522 13.6776 7.61159 13.6751 7.61668 13.6738C7.62305 13.6713 7.62815 13.6687 7.63324 13.6662H7.63325C7.63395 13.6662 7.63426 13.6662 7.63461 13.666L7.63579 13.6649C7.63706 13.6649 7.63834 13.6649 7.63961 13.6636L7.64725 13.6598C7.6549 13.656 7.66126 13.6522 7.66763 13.6484C7.67018 13.6471 7.67145 13.6458 7.67273 13.6445L7.6739 13.6442L7.67464 13.6439C7.67528 13.6436 7.67591 13.6433 7.67655 13.6433C7.6791 13.6413 7.68164 13.6398 7.68419 13.6382C7.68674 13.6366 7.68929 13.635 7.69183 13.6331L7.69438 13.6292L14.8656 8.4158C14.984 8.32919 15.0299 8.17506 14.9789 8.0375L14.0032 5.43778C14.002 5.43524 14.0007 5.43141 14.0007 5.42887L12.0442 0.211604C11.9958 0.0855029 11.8774 0.00143548 11.7423 0.000161816ZM1.97781 5.86958H4.71891L6.62826 11.7441L1.97781 5.86958ZM13.0212 5.86958H10.2801L8.37074 11.7441L13.0212 5.86958ZM1.4059 6.19821L5.7672 11.7072L0.718075 8.03495L1.4059 6.19821ZM14.2809 8.03495L13.5931 6.19821L9.23179 11.7072L14.2809 8.03495Z" fill="#56F8FE"/>
</svg>
