<svg width="528" height="267" viewBox="0 0 528 267" fill="none" xmlns="http://www.w3.org/2000/svg">
<circle r="15" transform="matrix(-1 0 0 1 377 130)" fill="#000B12"/>
<path d="M4.526 232.506V234.495C4.409 233.397 4.526 232.506 4.526 232.506Z" fill="#000B12"/>
<path fill-rule="evenodd" clip-rule="evenodd" d="M137.679 48.3506C267.958 -170.973 539.663 101.679 398.253 60.3906C275.724 24.6277 263.508 182.324 302.518 227.408C309.681 215.271 316.852 203.15 324.023 191.045C324.357 190.469 324.732 189.982 325.131 189.52C325.195 189.356 325.253 189.194 325.311 189.032L325.311 189.032C325.43 188.7 325.548 188.368 325.718 188.019C329.988 179.727 334.478 171.509 339.066 163.363C329.385 163.677 319.704 163.969 310.023 164.261C305.183 164.407 300.342 164.553 295.502 164.702C283.685 165.059 283.726 146.828 295.502 146.463C305.464 146.159 315.426 145.857 325.388 145.555C335.35 145.252 345.313 144.95 355.275 144.646C357.581 144.573 359.414 145.222 360.816 146.293C362.332 146.642 363.782 147.193 365.168 147.932C366.553 148.273 367.93 148.938 369.218 150.074C379.474 159.261 389.73 168.436 399.999 177.621L403.142 180.433C411.935 188.319 398.954 201.17 390.193 193.317C385.384 189.025 380.578 184.721 375.77 180.417L375.767 180.414L375.761 180.409C373.42 178.313 371.079 176.217 368.737 174.121C363.391 183.419 358.249 192.798 353.319 202.306C361.623 206.533 369.348 211.701 376.495 217.916C379.428 220.447 379.958 223.538 379.078 226.281C379.29 227.133 379.412 228.074 379.347 229.12C379.325 229.431 379.305 229.752 379.286 230.075C379.269 230.351 379.252 230.629 379.233 230.905C391.133 227.036 399.753 222.674 406.198 219.413C417.724 213.581 422.29 211.271 426.204 221.599C452.72 277.636 527.551 267 527.551 267L482.612 322H3.00012V234.54C3.68463 241.428 14.0584 256.478 137.679 48.3506ZM335.358 214.2C334.242 213.803 333.321 213.251 332.514 212.618C330.025 216.833 327.533 221.048 325.042 225.263C322.55 229.477 320.059 233.692 317.569 237.907C319.631 238.572 321.766 239.002 323.974 239.116C336.785 239.862 349.138 238.442 360.588 235.952C360.672 234.658 360.756 233.354 360.839 232.049C360.902 231.072 360.965 230.094 361.028 229.12C361.032 229.062 361.043 229.017 361.053 228.972C361.063 228.929 361.073 228.888 361.077 228.836C353.376 222.589 344.762 217.454 335.358 214.2ZM419.652 280.071C418.185 290.967 378.524 294.707 331.039 288.428C283.58 282.148 246.135 266.79 247.585 255.894C248.563 248.649 266.524 244.592 292.405 244.527C292.024 245.173 291.641 245.82 291.259 246.466C290.651 247.492 290.043 248.519 289.439 249.549C283.433 259.707 299.275 268.875 305.248 258.75C305.905 257.64 306.561 256.531 307.217 255.423C309.222 252.037 311.224 248.656 313.226 245.257C320.576 245.736 328.261 246.507 336.198 247.562C344.339 248.641 352.145 250.004 359.553 251.545C359.417 253.708 359.275 255.858 359.132 258.016C359.044 259.346 358.955 260.679 358.868 262.019C358.102 273.751 376.413 273.686 377.187 262.019C377.318 259.975 377.448 257.946 377.587 255.878C403.566 263.163 420.638 272.639 419.652 280.071Z" fill="#000B12"/>
<circle r="4.5" transform="matrix(-1 0 0 1 411.5 82.5)" fill="#000B12"/>
<circle r="3" transform="matrix(-1 0 0 1 370 74)" fill="#000B12"/>
<circle r="2" transform="matrix(-1 0 0 1 391 68)" fill="#000B12"/>
<circle r="3" transform="matrix(-1 0 0 1 436 98)" fill="#000B12"/>
<circle r="2" transform="matrix(-1 0 0 1 405 98)" fill="#000B12"/>
</svg>
